{
  "appId": "com.pantahub.app",
  "appName": "Pantahub",
  "bundledWebRuntime": false,
  "npmClient": "yarn",
  "webDir": "build",
  "linuxAndroidStudioPath": "/snap/bin/android-studio",
  "cordova": {}
}
