{
  "images" : [
    {
      "filename" : "Default@2x~iphone~anyany.png",
      "idiom" : "universal",
      "scale" : "1x"
    },
    {
      "filename" : "Default@2x~ipad~anyany.png",
      "idiom" : "universal",
      "scale" : "2x"
    },
    {
      "filename" : "Default@3x~iphone~anyany.png",
      "idiom" : "universal",
      "scale" : "3x"
    },
    {
      "filename" : "Default@2x~ipad~comany.png",
      "idiom" : "iphone",
      "scale" : "1x"
    },
    {
      "filename" : "Default@2x~iphone~comany.png",
      "idiom" : "iphone",
      "scale" : "2x"
    },
    {
      "filename" : "Default@3x~iphone~comany.png",
      "idiom" : "iphone",
      "scale" : "3x"
    }
  ],
  "info" : {
    "author" : "xcode",
    "version" : 1
  }
}
